…
    ## Rows: 250 Columns: 5
    ## ── Column specification ────────────────────────────────────────────────────────
    ## Delimiter: ","
    ## dbl (5): SEQN, sex, age, BMI, education
    ## 
    ## ℹ Use `spec()` to retrieve the full column specification for this data.
    ## ℹ Specify the column types or set `show_col_types = FALSE` to quiet this message.

``` r
covar
```

    ## # A tibble: 231 × 5
    ##     seqn sex      age   bmi education
    ##    <dbl> <chr>  <int> <dbl> <fct>    
    ##  1 62161 male      22  23.3 =HS      
    ##  2 62164 female    44  23.2 >HS      
    ##  3 62169 male      21  20.1 =HS      
    ##  4 62174 male      80  33.9 >HS      
    ##  5 62177 male      51  20.1 =HS      
    ##  6 62178 male      80  28.5 =HS      
    ##  7 62180 male      35  27.9 >HS      
    ##  8 62184 male      26  22.1 =HS      
    ##  9 62189 female    30  22.4 >HS      
    ## 10 62191 male      70  NA   =HS      
    ## # ℹ 221 more rows
…
``` r
covar_accel_long <- covar_accel |>
  pivot_longer(cols = starts_with("min"), 
               names_to = "minute", 
               names_prefix = "min", 
               values_to = "activity_level")|>
  mutate(minute = as.numeric(minute))
covar_accel_long
```

    ## # A tibble: 328,320 × 9
    ##     seqn sex     age   bmi education total_activity avg_activity minute
    ##    <dbl> <chr> <int> <dbl> <fct>              <dbl>        <dbl>  <dbl>
    ##  1 62161 male     22  23.3 =HS               13194.         9.16      1
    ##  2 62161 male     22  23.3 =HS               13194.         9.16      2
    ##  3 62161 male     22  23.3 =HS               13194.         9.16      3
    ##  4 62161 male     22  23.3 =HS               13194.         9.16      4
    ##  5 62161 male     22  23.3 =HS               13194.         9.16      5
    ##  6 62161 male     22  23.3 =HS               13194.         9.16      6
    ##  7 62161 male     22  23.3 =HS               13194.         9.16      7
    ##  8 62161 male     22  23.3 =HS               13194.         9.16      8
    ##  9 62161 male     22  23.3 =HS               13194.         9.16      9
    ## 10 62161 male     22  23.3 =HS               13194.         9.16     10
    ## # ℹ 328,310 more rows
    ## # ℹ 1 more variable: activity_level <dbl>
…
    ## `summarise()` has grouped output by 'education', 'sex'. You can override using
    ## the `.groups` argument.

``` r
df_hourly
```

    ## # A tibble: 144 × 4
    ##    education sex     hour activity_level
    ##    <fct>     <chr>  <dbl>          <dbl>
    ##  1 <HS       female     1          2.43 
    ##  2 <HS       female     2          1.73 
    ##  3 <HS       female     3          1.34 
    ##  4 <HS       female     4          0.997
    ##  5 <HS       female     5          1.17 
    ##  6 <HS       female     6          2.00 
    ##  7 <HS       female     7          4.15 
    ##  8 <HS       female     8          9.11 
    ##  9 <HS       female     9         11.3  
    ## 10 <HS       female    10         14.0  
    ## # ℹ 134 more rows
…
  reduce(full_join, by = names(jan20)) |>
  mutate(weekdays = as.character(weekdays)) |>
  mutate(weekdays = case_when(
    weekdays == "Monday" ~ "Mon",
    weekdays == "Tuesday" ~ "Tues",
    weekdays == "Wednesday" ~ "Wed",
    weekdays == "Thursday" ~ "Thurs",
    weekdays == "Friday" ~ "Fri",
    weekdays == "Saturday" ~ "Sat",
    weekdays == "Sunday" ~ "Sun")) |>
   mutate(weekdays = factor(weekdays, levels = c("Mon", "Tues", "Wed", "Thurs", "Fri", "Sat", "Sun")))
citi_merged
```

    ## # A tibble: 99,485 × 8
    ##    ride_id   rideable_type weekdays duration start_station_name end_station_name
    ##    <chr>     <chr>         <fct>       <dbl> <chr>              <chr>           
    ##  1 4BE06CB3… classic_bike  Tues        15.3  Columbus Ave & W … E 53 St & Madis…
    ##  2 26886E03… classic_bike  Wed          5.31 2 Ave & E 96 St    1 Ave & E 110 St
    ##  3 24DC5606… classic_bike  Fri          9.69 Columbia St & Riv… Grand St & Eliz…
    ##  4 EEDC1053… classic_bike  Sun          7.00 W 84 St & Columbu… Columbus Ave & …
    ##  5 2CD4BD4C… classic_bike  Fri          2.85 Forsyth St & Broo… Suffolk St & St…
    ##  6 E18682F9… classic_bike  Sun         25.5  Allen St & Hester… Atlantic Ave & …
    ##  7 B9B2E896… classic_bike  Sun          3.65 Lafayette St & Je… Washington Pl &…
    ##  8 DEF8F504… classic_bike  Sun         38.3  28 Ave & 44 St     Broadway & Kosc…
    ##  9 17D44DA9… classic_bike  Thurs       38.5  Barrow St & Hudso… Emerson Pl & My…
    ## 10 0FD113A3… classic_bike  Tues         6.52 Carlton Ave & Par… Emerson Pl & My…
    ## # ℹ 99,475 more rows
    ## # ℹ 2 more variables: member_casual <chr>, time <chr>
…
``` r
plot_data = citi_merged |>
  separate(time, into = c("month", "year"), sep = " ") |>
  group_by(weekdays, month, year) |>
  summarize(median_duration = median(duration, na.rm = TRUE))
```

    ## `summarise()` has grouped output by 'weekdays', 'month'. You can override using
    ## the `.groups` argument.

``` r
plot_data
```

    ## # A tibble: 28 × 4
    ## # Groups:   weekdays, month [14]
    ##    weekdays month year  median_duration
    ##    <fct>    <chr> <chr>           <dbl>
    ##  1 Mon      Jan   2020             8.66
    ##  2 Mon      Jan   2024             7.51
    ##  3 Mon      Jul   2020            13.4 
    ##  4 Mon      Jul   2024             9.12
    ##  5 Tues     Jan   2020             8.57
    ##  6 Tues     Jan   2024             7.38
    ##  7 Tues     Jul   2020            13.8 
    ##  8 Tues     Jul   2024             9.03
    ##  9 Wed      Jan   2020             8.80
    ## 10 Wed      Jan   2024             7.66
    ## # ℹ 18 more rows
…
``` r
data_2024 = citi_merged |>
  separate(time, into = c("month", "year"), sep = " ") |>
  filter(year == 2024)
data_2024
```

    ## # A tibble: 66,017 × 9
    ##    ride_id   rideable_type weekdays duration start_station_name end_station_name
    ##    <chr>     <chr>         <fct>       <dbl> <chr>              <chr>           
    ##  1 644A0105… electric_bike Wed         16.5  Lafayette St & Je… W 50 St & 9 Ave 
    ##  2 A5A8C0AD… electric_bike Wed          6.29 Clinton St & Till… Duffield St & W…
    ##  3 B392CE34… electric_bike Tues         6.12 West End Ave & W … W 116 St & Broa…
    ##  4 33756EDC… electric_bike Wed         10.9  Grand St & Elizab… Front St & Jay …
    ##  5 29D9AF64… electric_bike Thurs        8.42 12 Ave & W 40 St   Washington St &…
    ##  6 C7E61191… electric_bike Sun         18.5  7 Ave & Central P… 44 Dr & Jackson…
    ##  7 947A4F86… electric_bike Sun          3.45 Edgecombe Ave & W… Adam Clayton Po…
    ##  8 0AD92E71… electric_bike Mon         14.9  11 Ave & W 59 St   1 Ave & E 30 St 
    ##  9 CE2C128D… electric_bike Fri          9.55 Allen St & Stanto… Christopher St …
    ## 10 DAAB66B1… electric_bike Sun          4.87 6 Ave & W 33 St    W 34 St & Hudso…
    ## # ℹ 66,007 more rows
    ## # ℹ 3 more variables: member_casual <chr>, month <chr>, year <chr>
…
